module gitlab.com/azizoo/chaqal

go 1.13

require (
	cloud.google.com/go v0.50.0 // indirect
	cloud.google.com/go/bigquery v1.3.0 // indirect
	cloud.google.com/go/firestore v1.1.0
	cloud.google.com/go/pubsub v1.1.0 // indirect
	cloud.google.com/go/storage v1.4.0 // indirect
	github.com/ardanlabs/conf v1.2.0
	github.com/ardanlabs/service v0.0.0-20191214204019-85f865c545f7
	github.com/dimfeld/httptreemux/v5 v5.0.2
	github.com/golang/groupcache v0.0.0-20191027212112-611e8accdfc9 // indirect
	github.com/jmoiron/sqlx v1.2.0
	github.com/joho/godotenv v1.3.0
	github.com/jstemmer/go-junit-report v0.9.1 // indirect
	github.com/pkg/errors v0.8.1
	github.com/tidwall/gjson v1.3.5
	go.opencensus.io v0.22.2
	golang.org/x/exp v0.0.0-20191224044220-1fea468a75e9 // indirect
	golang.org/x/net v0.0.0-20191209160850-c0dbc17a3553 // indirect
	golang.org/x/oauth2 v0.0.0-20191202225959-858c2ad4c8b6 // indirect
	golang.org/x/sys v0.0.0-20191224085550-c709ea063b76 // indirect
	golang.org/x/tools v0.0.0-20191224055732-dd894d0a8a40 // indirect
	google.golang.org/api v0.15.0
	google.golang.org/appengine v1.6.5 // indirect
	google.golang.org/genproto v0.0.0-20191223191004-3caeed10a8bf // indirect
	google.golang.org/grpc v1.26.0 // indirect
	gopkg.in/check.v1 v1.0.0-20190902080502-41f04d3bba15 // indirect
	gopkg.in/yaml.v2 v2.2.7 // indirect
)
